00:00:01.473564 VirtualBox GUI VM Selector Window 6.1.18 r142142 linux.amd64 (Feb 16 2021 07:45:49) release log
00:00:01.473566 Log opened 2021-02-21T01:33:28.857878000Z
00:00:01.473567 Build Type: release
00:00:01.473570 OS Product: Linux
00:00:01.473571 OS Release: 5.11.0-1-MANJARO
00:00:01.473572 OS Version: #1 SMP PREEMPT Sat Feb 20 10:01:20 UTC 2021
00:00:01.473596 DMI Product Name: 20F2A0GWLM
00:00:01.473606 DMI Product Version: ThinkPad L560
00:00:01.473612 Firmware type: UEFI
00:00:01.474080 Secure Boot: Disabled
00:00:01.474128 Host RAM: 7824MB (7.6GB) total, 7490MB (7.3GB) available
00:00:01.474136 Executable: /usr/lib/virtualbox/VirtualBox
00:00:01.474137 Process ID: 4160
00:00:01.474138 Package type: LINUX_64BITS_GENERIC (OSE)
00:00:01.474175 Qt version: 5.15.2
00:00:01.732966 GUI: UIMediumEnumerator: Medium-enumeration started...
00:00:03.560401 GUI: UIDesktopWidgetWatchdog::sltHandleHostScreenAvailableGeometryCalculated: Screen 0 work area is actually resized to: 9x39 x 670x720
00:00:03.569024 GUI: UIMediumEnumerator: Medium-enumeration finished!
00:00:17.992728 GUI: UIMediumEnumerator: Medium-enumeration finished!
00:11:25.446362 GUI: UIMediumEnumerator: Medium-enumeration finished!
00:47:39.133434 GUI: UIMediumEnumerator: Medium-enumeration finished!
00:47:42.215582 GUI: UIMediumEnumerator: Medium-enumeration finished!
00:47:42.380282 GUI: UIMediumEnumerator: Medium-enumeration finished!
