00:00:01.628312 VirtualBox GUI VM Selector Window 6.1.18 r142142 linux.amd64 (Feb 16 2021 07:45:49) release log
00:00:01.628314 Log opened 2021-02-21T07:45:22.255873000Z
00:00:01.628314 Build Type: release
00:00:01.628316 OS Product: Linux
00:00:01.628317 OS Release: 5.11.0-1-MANJARO
00:00:01.628318 OS Version: #1 SMP PREEMPT Sat Feb 20 10:01:20 UTC 2021
00:00:01.628336 DMI Product Name: 20F2A0GWLM
00:00:01.628343 DMI Product Version: ThinkPad L560
00:00:01.628347 Firmware type: UEFI
00:00:01.628804 Secure Boot: Disabled
00:00:01.628839 Host RAM: 7824MB (7.6GB) total, 5437MB (5.3GB) available
00:00:01.628841 Executable: /usr/lib/virtualbox/VirtualBox
00:00:01.628842 Process ID: 1263859
00:00:01.628842 Package type: LINUX_64BITS_GENERIC (OSE)
00:00:01.628865 Qt version: 5.15.2
00:00:01.863436 GUI: UIMediumEnumerator: Medium-enumeration started...
00:00:03.109408 GUI: UIDesktopWidgetWatchdog::sltHandleHostScreenAvailableGeometryCalculated: Screen 0 work area is actually resized to: 9x402 x 438x357
00:00:03.114953 GUI: UIMediumEnumerator: Medium-enumeration finished!
00:00:31.422139 GUI: UIMediumEnumerator: Medium with key={{27ff075b-5d4f-4ad1-8c5d-ed4e332c01bf}} created
00:00:31.944146 GUI: UIMediumEnumerator: Medium-enumeration finished!
00:01:03.557577 GUI: UIMediumEnumerator: Medium with key={{bf2652cf-049d-4d93-bf05-477b0abe0754}} created
00:01:04.421842 GUI: UIMediumEnumerator: Medium-enumeration finished!
00:01:11.508317 GUI: UIMediumEnumerator: Medium-enumeration finished!
00:01:11.764058 GUI: UIMediumEnumerator: Medium-enumeration finished!
