00:00:02.465027 VirtualBox GUI VM Selector Window 6.1.18 r142142 linux.amd64 (Feb 16 2021 07:45:49) release log
00:00:02.465029 Log opened 2021-02-21T08:15:44.755905000Z
00:00:02.465029 Build Type: release
00:00:02.465031 OS Product: Linux
00:00:02.465032 OS Release: 5.11.0-1-MANJARO
00:00:02.465033 OS Version: #1 SMP PREEMPT Sat Feb 20 10:01:20 UTC 2021
00:00:02.465052 DMI Product Name: 20F2A0GWLM
00:00:02.465059 DMI Product Version: ThinkPad L560
00:00:02.465062 Firmware type: UEFI
00:00:02.465518 Secure Boot: Disabled
00:00:02.465554 Host RAM: 7824MB (7.6GB) total, 6326MB (6.1GB) available
00:00:02.465556 Executable: /usr/lib/virtualbox/VirtualBox
00:00:02.465557 Process ID: 1318507
00:00:02.465557 Package type: LINUX_64BITS_GENERIC (OSE)
00:00:02.465582 Qt version: 5.15.2
00:00:02.660953 GUI: UIMediumEnumerator: Medium-enumeration started...
00:00:04.552968 GUI: UIDesktopWidgetWatchdog::sltHandleHostScreenAvailableGeometryCalculated: Screen 0 work area is actually resized to: 686x39 x 671x356
00:00:04.558347 GUI: UIMediumEnumerator: Medium-enumeration finished!
00:00:29.779299 GUI: UIMediumEnumerator: Medium-enumeration finished!
00:00:29.906470 GUI: UIMediumEnumerator: Medium-enumeration finished!
00:01:06.476209 GUI: UIMediumEnumerator: Medium-enumeration finished!
00:01:07.569557 GUI: UIMediumEnumerator: Medium-enumeration finished!
00:01:19.068030 GUI: UIMediumEnumerator: Medium-enumeration finished!
00:01:19.513615 GUI: UIMediumEnumerator: Medium-enumeration finished!
00:01:19.758774 GUI: UIMediumEnumerator: Medium-enumeration finished!
00:01:20.016329 GUI: UIMediumEnumerator: Medium-enumeration finished!
00:01:54.496214 GUI: UIMediumEnumerator: Medium-enumeration finished!
00:01:54.729180 GUI: UIMediumEnumerator: Medium-enumeration finished!
00:01:54.983271 GUI: UIMediumEnumerator: Medium-enumeration finished!
00:01:55.195481 GUI: UIMediumEnumerator: Medium-enumeration finished!
00:01:55.392668 GUI: UIMediumEnumerator: Medium-enumeration finished!
00:02:05.540671 GUI: UIMediumEnumerator: Medium-enumeration finished!
00:34:08.013434 GUI: UIMediumEnumerator: Medium-enumeration finished!
00:34:33.918715 GUI: UIMediumEnumerator: Medium-enumeration finished!
00:34:34.367587 GUI: UIMediumEnumerator: Medium-enumeration finished!
