00:00:02.562495 VirtualBox GUI VM Selector Window 6.1.18 r142142 linux.amd64 (Feb 16 2021 07:45:49) release log
00:00:02.562497 Log opened 2021-02-21T01:28:48.604506000Z
00:00:02.562497 Build Type: release
00:00:02.562499 OS Product: Linux
00:00:02.562501 OS Release: 5.11.0-0-MANJARO
00:00:02.562502 OS Version: #1 SMP PREEMPT Mon Feb 15 07:21:30 UTC 2021
00:00:02.562520 DMI Product Name: 20F2A0GWLM
00:00:02.562527 DMI Product Version: ThinkPad L560
00:00:02.562531 Firmware type: UEFI
00:00:02.563011 Secure Boot: Disabled
00:00:02.563051 Host RAM: 7824MB (7.6GB) total, 6336MB (6.1GB) available
00:00:02.563053 Executable: /usr/lib/virtualbox/VirtualBox
00:00:02.563054 Process ID: 1187642
00:00:02.563054 Package type: LINUX_64BITS_GENERIC (OSE)
00:00:02.563080 Qt version: 5.15.2
00:00:02.714907 GUI: UIMediumEnumerator: Medium-enumeration started...
00:00:02.714993 GUI: UIMediumEnumerator: Medium-enumeration finished!
00:00:03.465267 GUI: UIDesktopWidgetWatchdog::sltHandleHostScreenAvailableGeometryCalculated: Screen 0 work area is actually resized to: 898x39 x 459x356
00:01:03.947394 GUI: UIMediumEnumerator: Medium with key={{ccd318e0-8480-4e22-a674-5b0f5a0ec4e3}} created
00:01:04.375340 GUI: UIMediumEnumerator: Medium-enumeration finished!
00:01:31.601151 GUI: UIMediumEnumerator: Medium with key={{9c7a4394-400b-4ac4-97e7-dee9da504d4e}} created
00:01:31.742044 GUI: UIMediumEnumerator: Medium-enumeration finished!
00:01:41.525653 GUI: UIMediumEnumerator: Medium-enumeration finished!
00:01:41.706601 GUI: UIMediumEnumerator: Medium-enumeration finished!
00:02:08.582365 ERROR [COM]: aRC=NS_ERROR_UNEXPECTED (0x8000ffff) aIID={c0447716-ff5a-4795-b57a-ecd5fffa18a4} aComponent={SessionWrap} aText={The session is not locked (session state: Unlocked)}, preserve=false aResultDetail=0
00:02:48.110344 ERROR [COM]: aRC=NS_ERROR_UNEXPECTED (0x8000ffff) aIID={c0447716-ff5a-4795-b57a-ecd5fffa18a4} aComponent={SessionWrap} aText={The session is not locked (session state: Unlocked)}, preserve=false aResultDetail=0
