00:00:00.002322 main     VirtualBox XPCOM Server 6.1.18 r142142 linux.amd64 (Feb 16 2021 07:45:49) release log
00:00:00.002324 main     Log opened 2021-02-21T07:45:21.767120000Z
00:00:00.002325 main     Build Type: release
00:00:00.002327 main     OS Product: Linux
00:00:00.002328 main     OS Release: 5.11.0-1-MANJARO
00:00:00.002329 main     OS Version: #1 SMP PREEMPT Sat Feb 20 10:01:20 UTC 2021
00:00:00.002351 main     DMI Product Name: 20F2A0GWLM
00:00:00.002359 main     DMI Product Version: ThinkPad L560
00:00:00.002363 main     Firmware type: UEFI
00:00:00.003058 main     Secure Boot: Disabled
00:00:00.003093 main     Host RAM: 7824MB (7.6GB) total, 5440MB (5.3GB) available
00:00:00.003096 main     Executable: /usr/lib/virtualbox/VBoxSVC
00:00:00.003096 main     Process ID: 1263923
00:00:00.003097 main     Package type: LINUX_64BITS_GENERIC (OSE)
00:00:00.005012 main     IPC socket path: /tmp/.vbox-carlos-ipc/ipcd
00:00:00.140773 nspr-2   VirtualBox: object creation starts
00:00:00.140860 nspr-2   Home directory: '/home/carlos/.config/VirtualBox'
00:00:00.163587 nspr-2   Loading settings file "/home/carlos/.config/VirtualBox/VirtualBox.xml" with version "1.12-linux"
00:00:00.205747 nspr-2   NetIfAdpCtlOut: VBoxNetAdpCtl: Error while retrieving link speed for wlp2s0: VBoxNetAdpCtl: ioctl failed: Operation not supported
00:00:00.207306 nspr-2   HostDnsMonitor: initializing
00:00:00.207498 nspr-2   NAT: resolv.conf: nameserver 10.0.196.139
00:00:00.207509 nspr-2   NAT: resolv.conf: nameserver 10.0.196.141
00:00:00.207513 nspr-2   NAT: resolv.conf: nameserver 200.77.146.137
00:00:00.207525 nspr-2   HostDnsMonitor: updating information
00:00:00.207539 nspr-2   HostDnsMonitor: old information
00:00:00.207543 nspr-2     no server entries
00:00:00.207546 nspr-2     no domain set
00:00:00.207548 nspr-2     no search string entries
00:00:00.207551 nspr-2   HostDnsMonitor: new information
00:00:00.207554 nspr-2     server 1: 10.0.196.139
00:00:00.207557 nspr-2     server 2: 10.0.196.141
00:00:00.207560 nspr-2     server 3: 200.77.146.137
00:00:00.207563 nspr-2     no domain set
00:00:00.207566 nspr-2     no search string entries
00:00:00.218678 nspr-2   VD: VDInit finished with VINF_SUCCESS
00:00:00.238590 nspr-2   ERROR [COM]: aRC=NS_ERROR_FAILURE (0x80004005) aIID={027bc463-929c-40e8-bf16-fea557cd8e7e} aComponent={SystemPropertiesWrap} aText={Cannot determine default Guest Additions ISO location. Most likely they are not available}, preserve=false aResultDetail=0
00:00:00.252517 nspr-2   Loading settings file "/home/carlos/VirtualBox VMs/Void/Void.vbox" with version "1.16-linux"
00:00:00.253822 nspr-2   VirtualBox: object created
00:00:01.979101 nspr-2   WARNING [COM]: aRC=NS_ERROR_FAILURE (0x80004005) aIID={16ced992-5fdc-4aba-aff5-6a39bbd7c38b} aComponent={HostWrap} aText={VirtualBox is not currently allowed to access USB devices.  You can change this by adding your user to the 'vboxusers' group.  Please see the user manual for a more detailed explanation}, preserve=true  aResultDetail=0
00:00:02.298365 nspr-2   WARNING [COM]: aRC=NS_ERROR_FAILURE (0x80004005) aIID={16ced992-5fdc-4aba-aff5-6a39bbd7c38b} aComponent={HostWrap} aText={VirtualBox is not currently allowed to access USB devices.  You can change this by adding your user to the 'vboxusers' group.  Please see the user manual for a more detailed explanation}, preserve=true  aResultDetail=0
00:00:02.300235 nspr-2   WARNING [COM]: aRC=NS_ERROR_FAILURE (0x80004005) aIID={16ced992-5fdc-4aba-aff5-6a39bbd7c38b} aComponent={HostWrap} aText={VirtualBox is not currently allowed to access USB devices.  You can change this by adding your user to the 'vboxusers' group.  Please see the user manual for a more detailed explanation}, preserve=true  aResultDetail=0
00:00:29.681142 createBase Saving settings file "/home/carlos/.config/VirtualBox/VirtualBox.xml" with version "1.12-linux"
00:00:30.300033 nspr-3   Saving settings file "/home/carlos/VirtualBox VMs/enerbouros/enerbouros.vbox" with version "1.16-linux"
00:00:30.395965 nspr-4   WARNING [COM]: aRC=NS_ERROR_FAILURE (0x80004005) aIID={16ced992-5fdc-4aba-aff5-6a39bbd7c38b} aComponent={HostWrap} aText={VirtualBox is not currently allowed to access USB devices.  You can change this by adding your user to the 'vboxusers' group.  Please see the user manual for a more detailed explanation}, preserve=true  aResultDetail=0
00:00:30.397068 nspr-3   Saving settings file "/home/carlos/VirtualBox VMs/enerbouros/enerbouros.vbox" with version "1.16-linux"
00:00:30.470918 nspr-3   Saving settings file "/home/carlos/.config/VirtualBox/VirtualBox.xml" with version "1.12-linux"
00:00:30.558168 nspr-3   Saving settings file "/home/carlos/.config/VirtualBox/VirtualBox.xml" with version "1.12-linux"
00:00:30.639848 nspr-2   Saving settings file "/home/carlos/VirtualBox VMs/enerbouros/enerbouros.vbox" with version "1.16-linux"
00:00:30.805461 nspr-2   WARNING [COM]: aRC=NS_ERROR_FAILURE (0x80004005) aIID={16ced992-5fdc-4aba-aff5-6a39bbd7c38b} aComponent={HostWrap} aText={VirtualBox is not currently allowed to access USB devices.  You can change this by adding your user to the 'vboxusers' group.  Please see the user manual for a more detailed explanation}, preserve=true  aResultDetail=0
00:00:30.845613 nspr-2   WARNING [COM]: aRC=NS_ERROR_FAILURE (0x80004005) aIID={16ced992-5fdc-4aba-aff5-6a39bbd7c38b} aComponent={HostWrap} aText={VirtualBox is not currently allowed to access USB devices.  You can change this by adding your user to the 'vboxusers' group.  Please see the user manual for a more detailed explanation}, preserve=true  aResultDetail=0
00:00:30.846706 nspr-2   WARNING [COM]: aRC=NS_ERROR_FAILURE (0x80004005) aIID={16ced992-5fdc-4aba-aff5-6a39bbd7c38b} aComponent={HostWrap} aText={VirtualBox is not currently allowed to access USB devices.  You can change this by adding your user to the 'vboxusers' group.  Please see the user manual for a more detailed explanation}, preserve=true  aResultDetail=0
00:00:32.415714 nspr-3   WARNING [COM]: aRC=NS_ERROR_FAILURE (0x80004005) aIID={16ced992-5fdc-4aba-aff5-6a39bbd7c38b} aComponent={HostWrap} aText={VirtualBox is not currently allowed to access USB devices.  You can change this by adding your user to the 'vboxusers' group.  Please see the user manual for a more detailed explanation}, preserve=true  aResultDetail=0
00:00:33.367835 nspr-3   NetIfAdpCtlOut: VBoxNetAdpCtl: Error while retrieving link speed for wlp2s0: VBoxNetAdpCtl: ioctl failed: Operation not supported
00:00:33.377735 nspr-2   NetIfAdpCtlOut: VBoxNetAdpCtl: Error while retrieving link speed for wlp2s0: VBoxNetAdpCtl: ioctl failed: Operation not supported
00:00:33.393609 nspr-2   WARNING [COM]: aRC=NS_ERROR_FAILURE (0x80004005) aIID={16ced992-5fdc-4aba-aff5-6a39bbd7c38b} aComponent={HostWrap} aText={VirtualBox is not currently allowed to access USB devices.  You can change this by adding your user to the 'vboxusers' group.  Please see the user manual for a more detailed explanation}, preserve=true  aResultDetail=0
00:00:33.394179 nspr-3   WARNING [COM]: aRC=NS_ERROR_FAILURE (0x80004005) aIID={16ced992-5fdc-4aba-aff5-6a39bbd7c38b} aComponent={HostWrap} aText={VirtualBox is not currently allowed to access USB devices.  You can change this by adding your user to the 'vboxusers' group.  Please see the user manual for a more detailed explanation}, preserve=true  aResultDetail=0
00:00:33.747404 nspr-4   WARNING [COM]: aRC=NS_ERROR_FAILURE (0x80004005) aIID={16ced992-5fdc-4aba-aff5-6a39bbd7c38b} aComponent={HostWrap} aText={VirtualBox is not currently allowed to access USB devices.  You can change this by adding your user to the 'vboxusers' group.  Please see the user manual for a more detailed explanation}, preserve=true  aResultDetail=0
00:00:33.750328 nspr-4   WARNING [COM]: aRC=NS_ERROR_FAILURE (0x80004005) aIID={16ced992-5fdc-4aba-aff5-6a39bbd7c38b} aComponent={HostWrap} aText={VirtualBox is not currently allowed to access USB devices.  You can change this by adding your user to the 'vboxusers' group.  Please see the user manual for a more detailed explanation}, preserve=true  aResultDetail=0
00:01:02.421938 nspr-3   Saving settings file "/home/carlos/.config/VirtualBox/VirtualBox.xml" with version "1.12-linux"
00:01:10.339343 nspr-4   Saving settings file "/home/carlos/.config/VirtualBox/VirtualBox.xml" with version "1.12-linux"
00:01:10.439944 nspr-4   WARNING [COM]: aRC=NS_ERROR_FAILURE (0x80004005) aIID={16ced992-5fdc-4aba-aff5-6a39bbd7c38b} aComponent={HostWrap} aText={VirtualBox is not currently allowed to access USB devices.  You can change this by adding your user to the 'vboxusers' group.  Please see the user manual for a more detailed explanation}, preserve=true  aResultDetail=0
00:01:10.443476 nspr-3   Saving settings file "/home/carlos/VirtualBox VMs/enerbouros/enerbouros.vbox" with version "1.16-linux"
00:01:10.506080 nspr-3   Saving settings file "/home/carlos/VirtualBox VMs/enerbouros/enerbouros.vbox" with version "1.16-linux"
00:01:10.676229 nspr-3   WARNING [COM]: aRC=NS_ERROR_FAILURE (0x80004005) aIID={16ced992-5fdc-4aba-aff5-6a39bbd7c38b} aComponent={HostWrap} aText={VirtualBox is not currently allowed to access USB devices.  You can change this by adding your user to the 'vboxusers' group.  Please see the user manual for a more detailed explanation}, preserve=true  aResultDetail=0
00:01:10.677335 nspr-3   WARNING [COM]: aRC=NS_ERROR_FAILURE (0x80004005) aIID={16ced992-5fdc-4aba-aff5-6a39bbd7c38b} aComponent={HostWrap} aText={VirtualBox is not currently allowed to access USB devices.  You can change this by adding your user to the 'vboxusers' group.  Please see the user manual for a more detailed explanation}, preserve=true  aResultDetail=0
00:01:17.411526 nspr-4   Launched VM: 1879060784 pid: 1266054 (0x135186) frontend: GUI/Qt name: enerbouros
00:01:17.478042 nspr-3   WARNING [COM]: aRC=NS_ERROR_FAILURE (0x80004005) aIID={16ced992-5fdc-4aba-aff5-6a39bbd7c38b} aComponent={HostWrap} aText={VirtualBox is not currently allowed to access USB devices.  You can change this by adding your user to the 'vboxusers' group.  Please see the user manual for a more detailed explanation}, preserve=true  aResultDetail=0
00:01:17.479402 nspr-3   WARNING [COM]: aRC=NS_ERROR_FAILURE (0x80004005) aIID={16ced992-5fdc-4aba-aff5-6a39bbd7c38b} aComponent={HostWrap} aText={VirtualBox is not currently allowed to access USB devices.  You can change this by adding your user to the 'vboxusers' group.  Please see the user manual for a more detailed explanation}, preserve=true  aResultDetail=0
00:01:17.888111 nspr-6   WARNING [COM]: aRC=NS_ERROR_FAILURE (0x80004005) aIID={16ced992-5fdc-4aba-aff5-6a39bbd7c38b} aComponent={HostWrap} aText={VirtualBox is not currently allowed to access USB devices.  You can change this by adding your user to the 'vboxusers' group.  Please see the user manual for a more detailed explanation}, preserve=true  aResultDetail=0
00:01:17.889749 nspr-6   WARNING [COM]: aRC=NS_ERROR_FAILURE (0x80004005) aIID={16ced992-5fdc-4aba-aff5-6a39bbd7c38b} aComponent={HostWrap} aText={VirtualBox is not currently allowed to access USB devices.  You can change this by adding your user to the 'vboxusers' group.  Please see the user manual for a more detailed explanation}, preserve=true  aResultDetail=0
00:01:18.578289 nspr-2   WARNING [COM]: aRC=NS_ERROR_FAILURE (0x80004005) aIID={16ced992-5fdc-4aba-aff5-6a39bbd7c38b} aComponent={HostWrap} aText={VirtualBox is not currently allowed to access USB devices.  You can change this by adding your user to the 'vboxusers' group.  Please see the user manual for a more detailed explanation}, preserve=true  aResultDetail=0
00:01:18.579741 nspr-3   WARNING [COM]: aRC=NS_ERROR_FAILURE (0x80004005) aIID={16ced992-5fdc-4aba-aff5-6a39bbd7c38b} aComponent={HostWrap} aText={VirtualBox is not currently allowed to access USB devices.  You can change this by adding your user to the 'vboxusers' group.  Please see the user manual for a more detailed explanation}, preserve=true  aResultDetail=0
00:01:18.580120 nspr-3   ERROR [COM]: aRC=VBOX_E_OBJECT_NOT_FOUND (0x80bb0001) aIID={70401eef-c8e9-466b-9660-45cb3e9979e4} aComponent={ExtPackManagerWrap} aText={No extension pack by the name 'Oracle VM VirtualBox Extension Pack' was found}, preserve=false aResultDetail=0
00:01:18.638411 nspr-2   WARNING [COM]: aRC=NS_ERROR_FAILURE (0x80004005) aIID={16ced992-5fdc-4aba-aff5-6a39bbd7c38b} aComponent={HostWrap} aText={VirtualBox is not currently allowed to access USB devices.  You can change this by adding your user to the 'vboxusers' group.  Please see the user manual for a more detailed explanation}, preserve=true  aResultDetail=0
00:01:18.639376 nspr-3   WARNING [COM]: aRC=NS_ERROR_FAILURE (0x80004005) aIID={16ced992-5fdc-4aba-aff5-6a39bbd7c38b} aComponent={HostWrap} aText={VirtualBox is not currently allowed to access USB devices.  You can change this by adding your user to the 'vboxusers' group.  Please see the user manual for a more detailed explanation}, preserve=true  aResultDetail=0
00:01:18.698727 nspr-3   ERROR [COM]: aRC=VBOX_E_IPRT_ERROR (0x80bb0005) aIID={85632c68-b5bb-4316-a900-5eb28d3413df} aComponent={SessionMachine} aText={Saved screenshot data is not available (VERR_NOT_SUPPORTED)}, preserve=false aResultDetail=-37
00:01:18.738415 nspr-2   NetIfAdpCtlOut: VBoxNetAdpCtl: Error while retrieving link speed for wlp2s0: VBoxNetAdpCtl: ioctl failed: Operation not supported
00:01:18.895631 nspr-2   WARNING [COM]: aRC=NS_ERROR_FAILURE (0x80004005) aIID={16ced992-5fdc-4aba-aff5-6a39bbd7c38b} aComponent={HostWrap} aText={VirtualBox is not currently allowed to access USB devices.  You can change this by adding your user to the 'vboxusers' group.  Please see the user manual for a more detailed explanation}, preserve=true  aResultDetail=0
00:01:18.898781 nspr-4   WARNING [COM]: aRC=NS_ERROR_FAILURE (0x80004005) aIID={16ced992-5fdc-4aba-aff5-6a39bbd7c38b} aComponent={HostWrap} aText={VirtualBox is not currently allowed to access USB devices.  You can change this by adding your user to the 'vboxusers' group.  Please see the user manual for a more detailed explanation}, preserve=true  aResultDetail=0
00:01:19.007790 nspr-4   WARNING [COM]: aRC=NS_ERROR_FAILURE (0x80004005) aIID={16ced992-5fdc-4aba-aff5-6a39bbd7c38b} aComponent={HostWrap} aText={VirtualBox is not currently allowed to access USB devices.  You can change this by adding your user to the 'vboxusers' group.  Please see the user manual for a more detailed explanation}, preserve=true  aResultDetail=0
00:01:20.166747 nspr-2   WARNING [COM]: aRC=NS_ERROR_FAILURE (0x80004005) aIID={16ced992-5fdc-4aba-aff5-6a39bbd7c38b} aComponent={HostWrap} aText={VirtualBox is not currently allowed to access USB devices.  You can change this by adding your user to the 'vboxusers' group.  Please see the user manual for a more detailed explanation}, preserve=true  aResultDetail=0
00:01:20.168323 nspr-3   WARNING [COM]: aRC=NS_ERROR_FAILURE (0x80004005) aIID={16ced992-5fdc-4aba-aff5-6a39bbd7c38b} aComponent={HostWrap} aText={VirtualBox is not currently allowed to access USB devices.  You can change this by adding your user to the 'vboxusers' group.  Please see the user manual for a more detailed explanation}, preserve=true  aResultDetail=0
00:01:21.927691 nspr-6   Saving settings file "/home/carlos/.config/VirtualBox/VirtualBox.xml" with version "1.12-linux"
00:01:21.998172 nspr-5   Saving settings file "/home/carlos/.config/VirtualBox/VirtualBox.xml" with version "1.12-linux"
00:01:22.244510 nspr-4   Saving settings file "/home/carlos/.config/VirtualBox/VirtualBox.xml" with version "1.12-linux"
00:01:22.308444 nspr-7   Saving settings file "/home/carlos/.config/VirtualBox/VirtualBox.xml" with version "1.12-linux"
00:01:22.381723 nspr-3   Saving settings file "/home/carlos/.config/VirtualBox/VirtualBox.xml" with version "1.12-linux"
00:01:30.805184 nspr-6   Saving settings file "/home/carlos/.config/VirtualBox/VirtualBox.xml" with version "1.12-linux"
00:03:48.335672 nspr-7   Saving settings file "/home/carlos/VirtualBox VMs/enerbouros/enerbouros.vbox" with version "1.16-linux"
00:03:49.014345 nspr-2   Saving settings file "/home/carlos/VirtualBox VMs/enerbouros/enerbouros.vbox" with version "1.16-linux"
00:05:43.908870 nspr-2   Saving settings file "/home/carlos/VirtualBox VMs/enerbouros/enerbouros.vbox" with version "1.16-linux"
00:05:47.277677 nspr-6   Saving settings file "/home/carlos/VirtualBox VMs/enerbouros/enerbouros.vbox" with version "1.16-linux"
00:06:42.530052 nspr-5   Saving settings file "/home/carlos/VirtualBox VMs/enerbouros/enerbouros.vbox" with version "1.16-linux"
00:06:42.846646 nspr-7   Saving settings file "/home/carlos/VirtualBox VMs/enerbouros/enerbouros.vbox" with version "1.16-linux"
00:06:43.012094 nspr-3   Saving settings file "/home/carlos/VirtualBox VMs/enerbouros/enerbouros.vbox" with version "1.16-linux"
00:07:36.427835 nspr-3   Saving settings file "/home/carlos/VirtualBox VMs/enerbouros/enerbouros.vbox" with version "1.16-linux"
00:07:37.166793 nspr-3   Saving settings file "/home/carlos/VirtualBox VMs/enerbouros/enerbouros.vbox" with version "1.16-linux"
00:07:37.930640 nspr-5   Saving settings file "/home/carlos/VirtualBox VMs/enerbouros/enerbouros.vbox" with version "1.16-linux"
00:08:20.937032 nspr-7   Saving settings file "/home/carlos/VirtualBox VMs/enerbouros/enerbouros.vbox" with version "1.16-linux"
00:10:02.601119 nspr-3   Saving settings file "/home/carlos/VirtualBox VMs/enerbouros/enerbouros.vbox" with version "1.16-linux"
00:10:02.752832 nspr-2   Saving settings file "/home/carlos/VirtualBox VMs/enerbouros/enerbouros.vbox" with version "1.16-linux"
00:10:03.035818 nspr-4   Saving settings file "/home/carlos/VirtualBox VMs/enerbouros/enerbouros.vbox" with version "1.16-linux"
00:10:03.233206 nspr-8   Saving settings file "/home/carlos/VirtualBox VMs/enerbouros/enerbouros.vbox" with version "1.16-linux"
00:10:03.472255 nspr-6   Saving settings file "/home/carlos/VirtualBox VMs/enerbouros/enerbouros.vbox" with version "1.16-linux"
00:12:32.625290 nspr-8   Saving settings file "/home/carlos/VirtualBox VMs/enerbouros/enerbouros.vbox" with version "1.16-linux"
00:12:33.371597 nspr-2   Saving settings file "/home/carlos/VirtualBox VMs/enerbouros/enerbouros.vbox" with version "1.16-linux"
00:12:37.623211 nspr-8   Saving settings file "/home/carlos/VirtualBox VMs/enerbouros/enerbouros.vbox" with version "1.16-linux"
00:12:37.889627 nspr-5   Saving settings file "/home/carlos/VirtualBox VMs/enerbouros/enerbouros.vbox" with version "1.16-linux"
00:12:38.135080 nspr-7   Saving settings file "/home/carlos/VirtualBox VMs/enerbouros/enerbouros.vbox" with version "1.16-linux"
00:12:38.389274 nspr-5   Saving settings file "/home/carlos/VirtualBox VMs/enerbouros/enerbouros.vbox" with version "1.16-linux"
00:13:32.243115 nspr-7   Saving settings file "/home/carlos/VirtualBox VMs/enerbouros/enerbouros.vbox" with version "1.16-linux"
00:13:32.431645 nspr-6   Saving settings file "/home/carlos/VirtualBox VMs/enerbouros/enerbouros.vbox" with version "1.16-linux"
00:13:32.647304 nspr-5   Saving settings file "/home/carlos/VirtualBox VMs/enerbouros/enerbouros.vbox" with version "1.16-linux"
00:13:32.826066 nspr-2   Saving settings file "/home/carlos/VirtualBox VMs/enerbouros/enerbouros.vbox" with version "1.16-linux"
00:13:33.043433 nspr-7   Saving settings file "/home/carlos/VirtualBox VMs/enerbouros/enerbouros.vbox" with version "1.16-linux"
00:13:45.421695 nspr-2   Saving settings file "/home/carlos/VirtualBox VMs/enerbouros/enerbouros.vbox" with version "1.16-linux"
00:30:08.571362 nspr-8   Saving settings file "/home/carlos/VirtualBox VMs/enerbouros/enerbouros.vbox" with version "1.16-linux"
00:30:08.684437 nspr-5   Saving settings file "/home/carlos/VirtualBox VMs/enerbouros/enerbouros.vbox" with version "1.16-linux"
00:30:14.795856 main     VirtualBox: object deletion starts
00:30:14.795944 main     ERROR [COM]: aRC=VBOX_E_OBJECT_IN_USE (0x80bb000c) aIID={ad47ad09-787b-44ab-b343-a082a3f2dfb1} aComponent={MediumWrap} aText={Medium '/home/carlos/VirtualBox VMs/Void/Void.vdi' cannot be closed because it is still attached to 1 virtual machines}, preserve=false aResultDetail=0
00:30:14.796112 main     ERROR [COM]: aRC=VBOX_E_OBJECT_IN_USE (0x80bb000c) aIID={ad47ad09-787b-44ab-b343-a082a3f2dfb1} aComponent={MediumWrap} aText={Medium '/home/carlos/VirtualBox VMs/enerbouros/enerbouros.vdi' cannot be closed because it is still attached to 1 virtual machines}, preserve=false aResultDetail=0
00:30:14.845524 main     HostDnsMonitor: shutting down ...
00:30:14.860727 main     HostDnsMonitor: shut down
00:30:15.131245 Watcher  ERROR [COM]: aRC=E_ACCESSDENIED (0x80070005) aIID={d0a0163f-e254-4e5b-a1f2-011cf991c38d} aComponent={VirtualBoxWrap} aText={The object is not ready}, preserve=false aResultDetail=0
00:30:19.860888 main     {00007f2674015470} HostPowerServiceLinux::~HostPowerServiceLinux: RTThreadWait() for 5000 ms failed with VERR_TIMEOUT
00:30:20.022576 main     VirtualBox: object deleted
